STA 313 – Animation
…
Turkiye: https://fred.stlouisfed.org/graph/fredgraph.csv?id=TURCPIALLMINMEI&cosd=1996-01-01&coed=2024-12-31&fq=Annual&fam=avg

Australia: https://fred.stlouisfed.org/graph/fredgraph.csv?id=AUSCPIALLQINMEI&cosd=1996-01-01&coed=2024-12-31&fq=Annual&fam=avg

Europe: https://fred.stlouisfed.org/graph/fredgraph.csv?id=CP0000EZ19M086NEST&cosd=1996-01-01&coed=2024-12-31&fq=Annual&fam=avg

Japan – Only annual inflation rates available: https://fred.stlouisfed.org/graph/fredgraph.csv?id=FPCPITOTLZGJPN&cosd=1996-01-01&coed=2024-12-31&fq=Annual&fam=avg

Load the data

inflation <- read_csv("data/cpi_cumulative_all.csv")
inflation

# A tibble: 29 × 6
    year   usa turkiye australia europe japan
   <dbl> <dbl>   <dbl>     <dbl>  <dbl> <dbl>
 1  1996  0        0        0      0     0   
 2  1997  2.34    85.7      0.22   1.7   1.75
 3  1998  3.92   243.       1.09   2.95  2.42
 4  1999  6.2    465.       2.59   4.16  2.07
 5  2000  9.78   776.       7.16   6.43  1.38
 6  2001 12.9   1252.      11.9    9     0.63
 7  2002 14.7   1860.      15.2   11.5  -0.3 
 8  2003 17.3   2283.      18.4   13.8  -0.56
 9  2004 20.4   2488.      21.1   16.3  -0.56
10  2005 24.5   2700.      24.4   18.9  -0.84
# ℹ 19 more rows
…
inflation_long

# A tibble: 145 × 3
    year country   cumulative_pct
   <dbl> <fct>              <dbl>
 1  1996 USA                 0   
 2  1996 Turkiye             0   
 3  1996 Australia           0   
 4  1996 Europe              0   
 5  1996 Japan               0   
 6  1997 USA                 2.34
 7  1997 Turkiye            85.7 
 8  1997 Australia           0.22
 9  1997 Europe              1.7 
10  1997 Japan               1.75
# ℹ 135 more rows
…
