STA 313 – Visualizing uncertainty I
…
Figure from Claus O. Wilke. Fundamentals of Data Visualization. O’Reilly, 2019.

Data: Everest

2019 Everest expedition data from The Himalayan Database via TidyTuesday.

everest_raw <- read_csv("data/everest/everest-2019.csv")

everest_raw

# A tibble: 1,001 × 21
    year expedition_id member_id    highpoint_metres sex   success oxygen_used
   <dbl> <chr>         <chr>                   <dbl> <chr> <chr>   <chr>      
 1  2019 EVER19101     EVER19101-01             8850 Male  Yes     With       
 2  2019 EVER19101     EVER19101-02             8850 Male  Yes     With       
 3  2019 EVER19101     EVER19101-03             8850 Male  Yes     With       
 4  2019 EVER19101     EVER19101-04             8850 Male  Yes     With       
 5  2019 EVER19101     EVER19101-05             8850 Male  Yes     With       
 6  2019 EVER19101     EVER19101-06             8850 Male  Yes     With       
 7  2019 EVER19101     EVER19101-07             8850 Male  Yes     With       
 8  2019 EVER19101     EVER19101-08             8850 Male  Yes     With       
 9  2019 EVER19102     EVER19102-01             8850 Male  Yes     With       
10  2019 EVER19102     EVER19102-02             8850 Male  Yes     With       
# ℹ 991 more rows
# ℹ 14 more variables: peak_id <chr>, peak_name <chr>, season <chr>, age <dbl>,
#   citizenship <chr>, expedition_role <chr>, hired <lgl>, solo <lgl>,
#   died <chr>, death_cause <chr>, death_height_metres <dbl>, injured <lgl>,
#   injury_type <chr>, injury_height_metres <dbl>
…
Visualizing uncertainty in model estimates

Data: Life expectancy vs. GDP per capita

life_exp_gdp_raw <- read_csv("data/life-exp-gdp/life-exp-gdp.csv")

life_exp_gdp_raw

# A tibble: 3,088 × 5
   country     continent  year life_exp gdp_percap
   <chr>       <chr>     <dbl>    <dbl>      <dbl>
 1 Afghanistan Asia       1950     42.7      1729.
 2 Afghanistan Asia       1955     43.9      2010.
 3 Afghanistan Asia       1960     45.0      2278.
 4 Afghanistan Asia       1965     46.1      2360.
 5 Afghanistan Asia       1970     47.1      2478.
 6 Afghanistan Asia       1975     47.6      2228.
 7 Afghanistan Asia       1980     43.7      2251.
 8 Afghanistan Asia       1985     42.0      3068.
 9 Afghanistan Asia       1990     53.8      2413.
10 Afghanistan Asia       1995     54.3      1689.
# ℹ 3,078 more rows
…
