STA 313 – Presentation-ready plots I
…
Source: https://www.investopedia.com/articles/forex/121815/bitcoins-price-history.asp

Polishing: Take a sad plot, and make it better

Opinion pieces from The Chronicle

chronicle <- read_csv("data/chronicle-article.csv")
chronicle

# A tibble: 500 × 8
   title             author date_time           month   day column url   article
   <chr>             <chr>  <dttm>              <chr> <dbl> <chr>  <chr> <chr>  
 1 The United State… Noor … 2025-10-07 10:00:00 Oct       7 Opini… http… "Frate…
 2 The problem with… Harri… 2025-10-07 10:00:00 Oct       7 Campu… http… "In th…
 3 The 'Duke Differ… Gabri… 2025-10-06 14:30:00 Oct       6 Campu… http… "A wee…
 4 Death ain’t noth… Luke … 2025-10-06 10:00:00 Oct       6 Campu… http… "Some …
 5 Hazing ban force… Monda… 2025-10-06 04:00:00 Oct       6 Campu… http… "Edito…
 6 Duke’s hold on D… Lucas… 2025-10-04 10:00:00 Oct       4 Campu… http… "Duke …
 7 The world needs … Leo G… 2025-10-03 10:00:00 Oct       3 Campu… http… "Recen…
 8 We’ve grown the … Kayle… 2025-10-02 14:00:00 Oct       2 Opini… http… "As a …
 9 How Duke introdu… Neel … 2025-10-01 10:00:00 Oct       1 Campu… http… "Comin…
10 Why aren’t we al… Ryan … 2025-10-01 10:00:00 Oct       1 Campu… http… "The e…
# ℹ 490 more rows
…
chronicle_sentiments

# A tibble: 58 × 3
   author               n_articles avg_sentiment
   <chr>                     <int>         <dbl>
 1 Nicholas Chrapliwy            2          59.5
 2 Anna Sorensen                 5          39  
 3 Valentina Garbelotto          7          38.6
 4 Arya Krishnan                 4          38.5
 5 Krisha Patel                  2          37.5
 6 Gabrielle Mollin              6          37.3
 7 Opinion                       2          32  
 8 Jessica Luan                  5          27.6
 9 Alex Berkman                 11          26.7
10 Annie Ming Kowalik            5          24.8
# ℹ 48 more rows
…
