STA 313 – Interactive visualizations and reporting with Shiny I
…
Source: Nicola Rennie’s TidyTuesday submission.

Data: absolute_judgements

absolute_judgements <- read_csv("data/absolute-judgements.csv")
absolute_judgements

# A tibble: 98,306 × 4
   response_id term               probability order
         <dbl> <chr>                    <dbl> <dbl>
 1        5177 Little Chance               20     1
 2        5177 Almost No Chance             9     2
 3        5177 Remote Chance               18     3
 4        5177 May Happen                  44     4
 5        5177 Chances are Slight          27     5
 6        5177 Almost Certain              85     6
 7        5177 Likely                      74     7
 8        5177 Unlikely                    33     8
 9        5177 Very Good Chance            80     9
10        5177 Will Happen                 93    10
# ℹ 98,296 more rows

Data: relative_judgements

respondent_metadata <- read_csv("data/respondent-metadata.csv")
respondent_metadata |>
  relocate(country_of_residence, .after = response_id)

# A tibble: 5,174 × 6
   response_id country_of_residence timestamp age_band english_background       
         <dbl> <chr>                <chr>     <chr>    <chr>                    
 1        5177 United States        2026-02   45-54    English is my first lang…
 2        5176 United States        2026-02   25-34    English is my first lang…
 3        5175 <NA>                 2026-02   <NA>     <NA>                     
 4        5174 Myanmar (Burma)      2026-02   25-34    English is my first lang…
 5        5173 <NA>                 2026-02   <NA>     <NA>                     
 6        5172 United Kingdom       2026-02   25-34    English is my first lang…
 7        5171 Ireland              2026-02   75+      English is my first lang…
 8        5170 United States        2026-02   35-44    English is my first lang…
 9        5169 United States        2026-02   35-44    English is my first lang…
10        5168 Canada               2026-02   35-44    English is not my first …
# ℹ 5,164 more rows
# ℹ 1 more variable: education_level <chr>
…
