STA 313 – Visualizing uncertainty II
…
# Visualizing uncertainty of model estimates

Data: House prices in Duke Forest

openintro::duke_forest

# A tibble: 98 × 13
   address      price   bed  bath  area type  year_built heating cooling parking
   <chr>        <dbl> <dbl> <dbl> <dbl> <chr>      <dbl> <chr>   <fct>   <chr>  
 1 1 Learned … 1.52e6     3     4  6040 Sing…       1972 Other,… central 0 spac…
 2 1616 Pinec… 1.03e6     5     4  4475 Sing…       1969 Forced… central Carpor…
 3 2418 Wrigh… 4.20e5     2     3  1745 Sing…       1959 Forced… central Garage…
 4 2527 Sevie… 6.80e5     4     3  2091 Sing…       1961 Heat p… central Carpor…
 5 2218 Myers… 4.29e5     4     3  1772 Sing…       2020 Forced… central 0 spac…
 6 2619 Vesso… 4.56e5     3     3  1950 Sing…       2014 Forced… central Off-st…
 7 1803 Woodb… 1.27e6     5     5  3909 Sing…       1968 Forced… central Carpor…
 8 19 Learned… 5.57e5     4     3  2841 Sing…       1973 Heat p… central Carpor…
 9 2827 Mcdow… 6.97e5     4     5  3924 Sing…       1972 Other,… central Covered
10 2709 Mcdow… 6.5 e5     3     2  2173 Sing…       1964 Forced… other   0 spac…
# ℹ 88 more rows
# ℹ 3 more variables: lot <dbl>, hoa <chr>, url <chr>
…
Data prep

Remove 6 bedroom houeses

Make bed a factor variable

duke_forest <- duke_forest |>
  filter(bed != 6) |>
  mutate(bed = as.factor(bed))

duke_forest |>
  select(price, area, bed)

# A tibble: 97 × 3
     price  area bed  
     <dbl> <dbl> <fct>
 1 1520000  6040 3    
 2 1030000  4475 5    
 3  420000  1745 2    
 4  680000  2091 4    
 5  428500  1772 4    
 6  456000  1950 3    
 7 1270000  3909 5    
 8  557450  2841 4    
 9  697500  3924 4    
10  650000  2173 3    
# ℹ 87 more rows
…
duke_forest_bootstraps <- map_dfr(
  seq_len(n_rep),
  function(i) {
    duke_forest |>
      slice_sample(prop = 1, by = bed, replace = TRUE) |>
      mutate(resample = i, .before = address)
  }
)

Bootstrap samples

duke_forest_bootstraps

# A tibble: 48,500 × 14
   resample address     price bed    bath  area type  year_built heating cooling
      <int> <chr>       <dbl> <fct> <dbl> <dbl> <chr>      <dbl> <chr>   <fct>  
 1        1 1601 Ande… 270000 3       3    1416 Sing…       1990 No Data other  
 2        1 1103 Ande… 525000 3       3    2256 Sing…       2016 Heat p… other  
 3        1 2703 Sevi… 475000 3       2    2425 Sing…       1961 Forced… other  
 4        1 2401 Perk… 550000 3       3    2109 Sing…       1953 Forced… central
 5        1 2618 Pick… 412500 3       2    1661 Sing…       1941 Other,… other  
 6        1 147 Pinec… 600000 3       2.5  2514 Sing…       1934 Other   other  
 7        1 2809 Mcdo… 525000 3       2    1932 Sing…       1978 Forced… central
 8        1 2413 Perk… 385000 3       2    1831 Sing…       1951 Forced… central
 9        1 2813 Mont… 540000 3       3    2165 Sing…       1983 Forced… central
10        1 2749 Dogw… 592000 3       2    2378 Sing…       1960 Forced… other  
# ℹ 48,490 more rows
# ℹ 4 more variables: parking <chr>, lot <dbl>, hoa <chr>, url <chr>
…
