STA 313 – Visualizing geospatial data I
…
gc <- geosphere::gcIntermediate(
  p1 = cities |> filter(city == "istanbul") |> select(-city),
  p2 = cities |> filter(city == "los angeles") |> select(-city),
  n = 100,
  addStartEnd = TRUE
) |>
  as_tibble()

Intermediate points on the great circle

gc

# A tibble: 102 × 2
     lon   lat
   <dbl> <dbl>
 1  29.0  41.0
 2  28.4  41.9
 3  27.8  42.8
 4  27.1  43.6
 5  26.5  44.5
 6  25.8  45.3
 7  25.1  46.2
 8  24.4  47.0
 9  23.7  47.9
10  22.9  48.7
# ℹ 92 more rows
…
Bias warning

“Freedom Index” from any source have potential bias and is prone to miscalculations. While the index appears to cover many social issues including freedom of religion, expression, etc. this data (like any data) should be approached with skepticism. Quantifying complex issues like these is difficult and the process can oversimplify difficult to record/measure political nuances.

Source: https://freedomhouse.org/report/freedom-world

Data

freedom <- read_csv("data/freedom-2022.csv", na = c("", "-")) |>
  drop_na()

freedom

# A tibble: 195 × 4
   country                pr    cl status
   <chr>               <dbl> <dbl> <chr> 
 1 Afghanistan             7     7 NF    
 2 Albania                 3     3 PF    
 3 Algeria                 6     5 NF    
 4 Andorra                 1     1 F     
 5 Angola                  6     5 NF    
 6 Antigua and Barbuda     2     2 F     
 7 Argentina               2     2 F     
 8 Armenia                 4     4 PF    
 9 Australia               1     1 F     
10 Austria                 1     1 F     
# ℹ 185 more rows
…
Obtain country boundaries and store as a data frame

Join the freedom and country boundaries data frames

Plot the country boundaries, and fill by freedom scores

map_data()

The map_data() function easily turns data from the maps package in to a data frame suitable for plotting with ggplot2:

world_map <- map_data("world") |> as_tibble()
world_map

# A tibble: 99,338 × 6
    long   lat group order region subregion
   <dbl> <dbl> <dbl> <int> <chr>  <chr>    
 1 -69.9  12.5     1     1 Aruba  <NA>     
 2 -69.9  12.4     1     2 Aruba  <NA>     
 3 -69.9  12.4     1     3 Aruba  <NA>     
 4 -70.0  12.5     1     4 Aruba  <NA>     
 5 -70.1  12.5     1     5 Aruba  <NA>     
 6 -70.1  12.6     1     6 Aruba  <NA>     
 7 -70.0  12.6     1     7 Aruba  <NA>     
 8 -70.0  12.6     1     8 Aruba  <NA>     
 9 -69.9  12.5     1     9 Aruba  <NA>     
10 -69.9  12.5     1    10 Aruba  <NA>     
# ℹ 99,328 more rows
…
Freedom and world map

freedom |> select(country)

# A tibble: 195 × 1
   country            
   <chr>              
 1 Afghanistan        
 2 Albania            
 3 Algeria            
 4 Andorra            
 5 Angola             
 6 Antigua and Barbuda
 7 Argentina          
 8 Armenia            
 9 Australia          
10 Austria            
# ℹ 185 more rows

world_map |> select(region)

# A tibble: 99,338 × 1
   region
   <chr> 
 1 Aruba 
 2 Aruba 
 3 Aruba 
 4 Aruba 
 5 Aruba 
 6 Aruba 
 7 Aruba 
 8 Aruba 
 9 Aruba 
10 Aruba 
# ℹ 99,328 more rows
…
state_pops

# A tibble: 612 × 4
   name                  year resident_population percent_change_in_resident_p…¹
   <chr>                <dbl>               <dbl>                          <dbl>
 1 Alabama               1910             2138093                           16.9
 2 Alaska                1910               64356                            1.2
 3 Arizona               1910              204354                           66.2
 4 Arkansas              1910             1574449                           20  
 5 California            1910             2377549                           60.1
 6 Colorado              1910              799024                           48  
 7 Connecticut           1910             1114756                           22.7
 8 Delaware              1910              202322                            9.5
 9 District of Columbia  1910              331069                           18.8
10 Florida               1910              752619                           42.4
# ℹ 602 more rows
# ℹ abbreviated name: ¹​percent_change_in_resident_population
…
state_pops_trend

# A tibble: 612 × 5
   name     year resident_population percent_change_in_resident_population trend
   <chr>   <dbl>               <dbl>                                 <dbl> <chr>
 1 Alabama  1910             2138093                                  16.9 Over…
 2 Alabama  1920             2348174                                   9.8 Over…
 3 Alabama  1930             2646248                                  12.7 Over…
 4 Alabama  1940             2832961                                   7.1 Over…
 5 Alabama  1950             3061743                                   8.1 Over…
 6 Alabama  1960             3266740                                   6.7 Over…
 7 Alabama  1970             3444165                                   5.4 Over…
 8 Alabama  1980             3893888                                  13.1 Over…
 9 Alabama  1990             4040587                                   3.8 Over…
10 Alabama  2000             4447100                                  10.1 Over…
# ℹ 602 more rows
…
