STA 313 – Visualizing time series data II
…
unemp

# A tibble: 936 × 3
   date       unemp_rate degree    
   <date>          <dbl> <fct>     
 1 2000-01-01        2.1 Bachelor's
 2 2000-02-01        1.8 Bachelor's
 3 2000-03-01        1.7 Bachelor's
 4 2000-04-01        1.5 Bachelor's
 5 2000-05-01        1.7 Bachelor's
 6 2000-06-01        1.8 Bachelor's
 7 2000-07-01        1.9 Bachelor's
 8 2000-08-01        2.3 Bachelor's
 9 2000-09-01        2   Bachelor's
10 2000-10-01        1.6 Bachelor's
# ℹ 926 more rows
…
Peek at data

dch_2025 |>
  select(date, aqi_value, site_name, site_id)

# A tibble: 365 × 4
   date       aqi_value site_name     site_id    
   <chr>      <chr>     <chr>         <chr>      
 1 01/01/2025 18        Durham Armory 37-063-0015
 2 01/02/2025 33        Durham Armory 37-063-0015
 3 01/03/2025 37        Durham Armory 37-063-0015
 4 01/04/2025 16        Durham Armory 37-063-0015
 5 01/05/2025 19        Durham Armory 37-063-0015
 6 01/06/2025 23        Durham Armory 37-063-0015
 7 01/07/2025 25        Durham Armory 37-063-0015
 8 01/08/2025 27        Durham Armory 37-063-0015
 9 01/09/2025 .         <NA>          <NA>       
10 01/10/2025 .         <NA>          <NA>       
# ℹ 355 more rows

Transforming date

Using lubridate::mdy():

dch_2025 |>
  mutate(date = mdy(date))

# A tibble: 365 × 11
   date       aqi_value main_pollutant site_name     site_id     source
   <date>     <chr>     <chr>          <chr>         <chr>       <chr> 
 1 2025-01-01 18        PM2.5          Durham Armory 37-063-0015 AQS   
 2 2025-01-02 33        PM2.5          Durham Armory 37-063-0015 AQS   
 3 2025-01-03 37        PM2.5          Durham Armory 37-063-0015 AQS   
 4 2025-01-04 16        PM2.5          Durham Armory 37-063-0015 AQS   
 5 2025-01-05 19        PM2.5          Durham Armory 37-063-0015 AQS   
 6 2025-01-06 23        PM2.5          Durham Armory 37-063-0015 AQS   
 7 2025-01-07 25        PM2.5          Durham Armory 37-063-0015 AQS   
 8 2025-01-08 27        PM2.5          Durham Armory 37-063-0015 AQS   
 9 2025-01-09 .         <NA>           <NA>          <NA>        <NA>  
10 2025-01-10 .         <NA>           <NA>          <NA>        <NA>  
# ℹ 355 more rows
# ℹ 5 more variables: x24_year_high_2000_2023 <dbl>,
#   x24_year_low_2000_2023 <dbl>, x5_year_average_2019_2023 <dbl>,
#   date_of_24_year_high <chr>, date_of_24_year_low <chr>

Transforming AQI values

What does this warning mean?

dch_2025 |>
  mutate(aqi_value = as.numeric(aqi_value))

Warning: There was 1 warning in `mutate()`.
ℹ In argument: `aqi_value = as.numeric(aqi_value)`.
Caused by warning:
! NAs introduced by coercion

# A tibble: 365 × 11
   date       aqi_value main_pollutant site_name     site_id     source
   <chr>          <dbl> <chr>          <chr>         <chr>       <chr> 
 1 01/01/2025        18 PM2.5          Durham Armory 37-063-0015 AQS   
 2 01/02/2025        33 PM2.5          Durham Armory 37-063-0015 AQS   
 3 01/03/2025        37 PM2.5          Durham Armory 37-063-0015 AQS   
 4 01/04/2025        16 PM2.5          Durham Armory 37-063-0015 AQS   
 5 01/05/2025        19 PM2.5          Durham Armory 37-063-0015 AQS   
 6 01/06/2025        23 PM2.5          Durham Armory 37-063-0015 AQS   
 7 01/07/2025        25 PM2.5          Durham Armory 37-063-0015 AQS   
 8 01/08/2025        27 PM2.5          Durham Armory 37-063-0015 AQS   
 9 01/09/2025        NA <NA>           <NA>          <NA>        <NA>  
10 01/10/2025        NA <NA>           <NA>          <NA>        <NA>  
# ℹ 355 more rows
# ℹ 5 more variables: x24_year_high_2000_2023 <dbl>,
#   x24_year_low_2000_2023 <dbl>, x5_year_average_2019_2023 <dbl>,
#   date_of_24_year_high <chr>, date_of_24_year_low <chr>
…
When visualizing time series data, a somewhat common task is to calculate cumulatives over time and plot them

In our example we’ll calculate the number of days with “good” AQI (\(\le\) 50) and plot that value on the y-axis and the date on the x-axis

Calculating cumulatives

Step 1. Arrange your data

dch_2025 |>
  select(date, aqi_value) |>
  filter(!is.na(aqi_value)) |>
  arrange(date)

# A tibble: 364 × 2
   date       aqi_value
   <date>         <dbl>
 1 2022-01-01        22
 2 2022-01-02        12
 3 2022-01-03        10
 4 2022-01-04        21
 5 2022-01-05        35
 6 2022-01-06        29
 7 2022-01-07        15
 8 2022-01-08        28
 9 2022-01-09        28
10 2022-01-10        15
# ℹ 354 more rows

Calculating cumulatives

Step 2. Identify good days

dch_2025 |>
  select(date, aqi_value) |>
  filter(!is.na(aqi_value)) |>
  arrange(date) |>
  mutate(good_aqi = if_else(aqi_value <= 50, 1, 0))

# A tibble: 364 × 3
   date       aqi_value good_aqi
   <date>         <dbl>    <dbl>
 1 2022-01-01        22        1
 2 2022-01-02        12        1
 3 2022-01-03        10        1
 4 2022-01-04        21        1
 5 2022-01-05        35        1
 6 2022-01-06        29        1
 7 2022-01-07        15        1
 8 2022-01-08        28        1
 9 2022-01-09        28        1
10 2022-01-10        15        1
# ℹ 354 more rows
Calculating cumulatives

Step 3. Sum over time

dch_2025 |>
  select(date, aqi_value) |>
  filter(!is.na(aqi_value)) |>
  arrange(date) |>
  mutate(
    good_aqi = if_else(aqi_value <= 50, 1, 0),
    cumsum_good_aqi = cumsum(good_aqi)
  ) |>
  print(n = 30)

# A tibble: 364 × 4
   date       aqi_value good_aqi cumsum_good_aqi
   <date>         <dbl>    <dbl>           <dbl>
 1 2022-01-01        22        1               1
 2 2022-01-02        12        1               2
 3 2022-01-03        10        1               3
 4 2022-01-04        21        1               4
 5 2022-01-05        35        1               5
 6 2022-01-06        29        1               6
 7 2022-01-07        15        1               7
 8 2022-01-08        28        1               8
 9 2022-01-09        28        1               9
10 2022-01-10        15        1              10
11 2022-01-11        25        1              11
12 2022-01-12        36        1              12
13 2022-01-13        49        1              13
14 2022-01-14        35        1              14
15 2022-01-15        28        1              15
16 2022-01-16        19        1              16
17 2022-01-17        19        1              17
18 2022-01-18        24        1              18
19 2022-01-19        46        1              19
20 2022-01-20        38        1              20
21 2022-01-21        19        1              21
22 2022-01-22        28        1              22
23 2022-01-23        49        1              23
24 2022-01-24        38        1              24
25 2022-01-25        48        1              25
26 2022-01-26        34        1              26
27 2022-01-27        47        1              27
28 2022-01-28        57        0              27
29 2022-01-29        26        1              28
30 2022-01-30        28        1              29
# ℹ 334 more rows
…
dch <- dch |>
  janitor::clean_names() |>
  mutate(
    date = mdy(date),
    good_aqi = if_else(aqi_value <= 50, 1, 0)
  ) |>
  filter(!is.na(aqi_value)) |>
  arrange(date) |>
  mutate(cumsum_good_aqi = cumsum(good_aqi), .after = aqi_value)

dch

# A tibble: 3,627 × 8
   date       aqi_value cumsum_good_aqi main_pollutant site_name  site_id source
   <date>         <dbl>           <dbl> <chr>          <chr>      <chr>   <chr> 
 1 2016-01-01        32               1 PM2.5          Durham Ar… 37-063… AQS   
 2 2016-01-02        37               2 PM2.5          Durham Ar… 37-063… AQS   
 3 2016-01-03        45               3 PM2.5          Durham Ar… 37-063… AQS   
 4 2016-01-04        33               4 PM2.5          Durham Ar… 37-063… AQS   
 5 2016-01-05        27               5 PM2.5          Durham Ar… 37-063… AQS   
 6 2016-01-06        39               6 PM2.5          Durham Ar… 37-063… AQS   
 7 2016-01-07        39               7 PM2.5          Durham Ar… 37-063… AQS   
 8 2016-01-08        31               8 PM2.5          Durham Ar… 37-063… AQS   
 9 2016-01-09        20               9 PM2.5          Durham Ar… 37-063… AQS   
10 2016-01-10        20              10 PM2.5          Durham Ar… 37-063… AQS   
# ℹ 3,617 more rows
# ℹ 1 more variable: good_aqi <dbl>
…
Coefficients:
(Intercept)         date  
 -1.295e+04    7.702e-01  

Detrend

Step 2. Augment the data with model results (using broom::augment())

dch_aug <- augment(m)

dch_aug

# A tibble: 3,627 × 8
   cumsum_good_aqi date       .fitted .resid    .hat .sigma   .cooksd .std.resid
             <dbl> <date>       <dbl>  <dbl>   <dbl>  <dbl>     <dbl>      <dbl>
 1               1 2016-01-01  -13.3    14.3 0.00110   45.4 0.0000546      0.315
 2               2 2016-01-02  -12.5    14.5 0.00110   45.4 0.0000563      0.320
 3               3 2016-01-03  -11.8    14.8 0.00110   45.4 0.0000580      0.325
 4               4 2016-01-04  -11.0    15.0 0.00110   45.4 0.0000598      0.330
 5               5 2016-01-05  -10.2    15.2 0.00110   45.4 0.0000616      0.335
 6               6 2016-01-06   -9.45   15.4 0.00109   45.4 0.0000634      0.340
 7               7 2016-01-07   -8.68   15.7 0.00109   45.4 0.0000653      0.345
 8               8 2016-01-08   -7.90   15.9 0.00109   45.4 0.0000671      0.350
 9               9 2016-01-09   -7.13   16.1 0.00109   45.4 0.0000690      0.355
10              10 2016-01-10   -6.36   16.4 0.00109   45.4 0.0000710      0.361
# ℹ 3,617 more rows

Detrend

Step 3. Divide the observed value of cumsum_good_aqi by the respective value in the long-term trend (i.e., .fitted)

dch_aug <- dch_aug |>
  mutate(ratio = cumsum_good_aqi / .fitted, .after = .fitted)

dch_aug

# A tibble: 3,627 × 9
   cumsum_good_aqi date       .fitted   ratio .resid    .hat .sigma   .cooksd
             <dbl> <date>       <dbl>   <dbl>  <dbl>   <dbl>  <dbl>     <dbl>
 1               1 2016-01-01  -13.3  -0.0752   14.3 0.00110   45.4 0.0000546
 2               2 2016-01-02  -12.5  -0.160    14.5 0.00110   45.4 0.0000563
 3               3 2016-01-03  -11.8  -0.255    14.8 0.00110   45.4 0.0000580
 4               4 2016-01-04  -11.0  -0.364    15.0 0.00110   45.4 0.0000598
 5               5 2016-01-05  -10.2  -0.489    15.2 0.00110   45.4 0.0000616
 6               6 2016-01-06   -9.45 -0.635    15.4 0.00109   45.4 0.0000634
 7               7 2016-01-07   -8.68 -0.807    15.7 0.00109   45.4 0.0000653
 8               8 2016-01-08   -7.90 -1.01     15.9 0.00109   45.4 0.0000671
 9               9 2016-01-09   -7.13 -1.26     16.1 0.00109   45.4 0.0000690
10              10 2016-01-10   -6.36 -1.57     16.4 0.00109   45.4 0.0000710
# ℹ 3,617 more rows
# ℹ 1 more variable: .std.resid <dbl>
…
sf

# A tibble: 3,314 × 8
   date       aqi_value cumsum_good_aqi main_pollutant site_name  site_id source
   <date>         <dbl>           <dbl> <chr>          <chr>      <chr>   <chr> 
 1 2016-01-01        32               1 PM2.5          Durham Ar… 37-063… AQS   
 2 2016-01-02        37               2 PM2.5          Durham Ar… 37-063… AQS   
 3 2016-01-03        45               3 PM2.5          Durham Ar… 37-063… AQS   
 4 2016-01-04        33               4 PM2.5          Durham Ar… 37-063… AQS   
 5 2016-01-05        27               5 PM2.5          Durham Ar… 37-063… AQS   
 6 2016-01-06        39               6 PM2.5          Durham Ar… 37-063… AQS   
 7 2016-01-07        39               7 PM2.5          Durham Ar… 37-063… AQS   
 8 2016-01-08        31               8 PM2.5          Durham Ar… 37-063… AQS   
 9 2016-01-09        20               9 PM2.5          Durham Ar… 37-063… AQS   
10 2016-01-10        20              10 PM2.5          Durham Ar… 37-063… AQS   
# ℹ 3,304 more rows
# ℹ 1 more variable: good_aqi <dbl>
…
