STA 313 – Visualizing time series data I
…
Between 2000-01-01 to 2025-12-01, monthly

Data: Unemployment Rate - Bachelor’s Degree, 25+ years (CGBD25O)

unemp_bachelor <- read_csv(here::here(
  "slides/05",
  "data/fred",
  "CGBD25O.csv"
)) |>
  rename(date = observation_date, unemp_rate = CGBD25O) |>
  mutate(degree = "Bachelor's")
unemp_bachelor

# A tibble: 312 × 3
   date       unemp_rate degree    
   <date>          <dbl> <chr>     
 1 2000-01-01        2.1 Bachelor's
 2 2000-02-01        1.8 Bachelor's
 3 2000-03-01        1.7 Bachelor's
 4 2000-04-01        1.5 Bachelor's
 5 2000-05-01        1.7 Bachelor's
 6 2000-06-01        1.8 Bachelor's
 7 2000-07-01        1.9 Bachelor's
 8 2000-08-01        2.3 Bachelor's
 9 2000-09-01        2   Bachelor's
10 2000-10-01        1.6 Bachelor's
# ℹ 302 more rows

Data: Unemployment Rate - Master’s Degree, 25+ years (CGMD25O)

unemp_master <- read_csv(here::here(
  "slides/05",
  "data/fred",
  "CGMD25O.csv"
)) |>
  rename(date = observation_date, unemp_rate = CGMD25O) |>
  mutate(degree = "Master's")
unemp_master

# A tibble: 312 × 3
   date       unemp_rate degree  
   <date>          <dbl> <chr>   
 1 2000-01-01        1.6 Master's
 2 2000-02-01        1.6 Master's
 3 2000-03-01        1.7 Master's
 4 2000-04-01        1.2 Master's
 5 2000-05-01        1   Master's
 6 2000-06-01        1.6 Master's
 7 2000-07-01        2.3 Master's
 8 2000-08-01        2.2 Master's
 9 2000-09-01        2.1 Master's
10 2000-10-01        1.6 Master's
# ℹ 302 more rows

Data: Unemployment Rate - Doctoral Degree, 25+ years (CGDD25O)

unemp_doctoral <- read_csv(here::here(
  "slides/05",
  "data/fred",
  "CGDD25O.csv"
)) |>
  rename(date = observation_date, unemp_rate = CGDD25O) |>
  mutate(degree = "Doctoral")
unemp_doctoral

# A tibble: 312 × 3
   date       unemp_rate degree  
   <date>          <dbl> <chr>   
 1 2000-01-01        1.4 Doctoral
 2 2000-02-01        1.4 Doctoral
 3 2000-03-01        0.9 Doctoral
 4 2000-04-01        0.6 Doctoral
 5 2000-05-01        0.8 Doctoral
 6 2000-06-01        0.7 Doctoral
 7 2000-07-01        0.7 Doctoral
 8 2000-08-01        1.3 Doctoral
 9 2000-09-01        0.7 Doctoral
10 2000-10-01        0.5 Doctoral
# ℹ 302 more rows

Data: All

unemp <- bind_rows(unemp_bachelor, unemp_master, unemp_doctoral) |>
  mutate(degree = fct_relevel(degree, "Bachelor's", "Master's", "Doctoral"))
unemp

# A tibble: 936 × 3
   date       unemp_rate degree    
   <date>          <dbl> <fct>     
 1 2000-01-01        2.1 Bachelor's
 2 2000-02-01        1.8 Bachelor's
 3 2000-03-01        1.7 Bachelor's
 4 2000-04-01        1.5 Bachelor's
 5 2000-05-01        1.7 Bachelor's
 6 2000-06-01        1.8 Bachelor's
 7 2000-07-01        1.9 Bachelor's
 8 2000-08-01        2.3 Bachelor's
 9 2000-09-01        2   Bachelor's
10 2000-10-01        1.6 Bachelor's
# ℹ 926 more rows
…
